M48
; DRILL file {KiCad 5.1.5-1.fc30} date Sat 16 May 2020 23:49:54 CEST
; FORMAT={-:-/ absolute / inch / decimal}
; #@! TF.CreationDate,2020-05-16T23:49:54+02:00
; #@! TF.GenerationSoftware,Kicad,Pcbnew,5.1.5-1.fc30
; #@! TF.FileFunction,Plated,1,2,PTH
FMAT,2
INCH
T1C0.0157
T2C0.0295
T3C0.0315
T4C0.0362
T5C0.0394
T6C0.0400
T7C0.0402
T8C0.0591
T9C0.0598
T10C0.0866
T11C0.0906
%
G90
G05
T1
X1.955Y-3.4
X2.025Y-3.455
X2.075Y-3.055
X2.075Y-3.255
X2.135Y-3.54
X2.43Y-3.215
X2.43Y-3.555
X2.705Y-1.9
X2.755Y-3.29
X2.985Y-1.985
T2
X2.27Y-2.235
X2.32Y-2.235
X2.37Y-2.235
T3
X1.71Y-1.58
X2.11Y-1.58
X2.64Y-2.205
X2.64Y-2.505
X2.74Y-2.205
X2.74Y-2.505
X2.84Y-2.205
X2.84Y-2.505
T4
X1.5919Y-2.87
X1.5919Y-2.9684
X1.5919Y-3.0472
X1.5919Y-3.1456
X1.695Y-2.87
X1.695Y-2.9684
X1.695Y-3.0472
X1.695Y-3.1456
T5
X3.1Y-1.65
X3.1Y-1.75
X3.1Y-1.85
X3.1Y-1.95
X3.1Y-2.05
X3.1Y-2.15
X3.1Y-2.25
X3.1Y-2.35
X3.1Y-2.45
X3.1Y-2.55
X3.1Y-2.65
X3.1Y-2.75
X3.1Y-2.85
X3.1Y-2.95
X3.1Y-3.05
X3.1Y-3.15
X3.1Y-3.25
X3.1Y-3.35
X3.1Y-3.45
X3.1Y-3.55
X3.2Y-1.65
X3.2Y-1.75
X3.2Y-1.85
X3.2Y-1.95
X3.2Y-2.05
X3.2Y-2.15
X3.2Y-2.25
X3.2Y-2.35
X3.2Y-2.45
X3.2Y-2.55
X3.2Y-2.65
X3.2Y-2.75
X3.2Y-2.85
X3.2Y-2.95
X3.2Y-3.05
X3.2Y-3.15
X3.2Y-3.25
X3.2Y-3.35
X3.2Y-3.45
X3.2Y-3.55
T6
X1.625Y-3.6
X1.625Y-3.7
X1.725Y-3.6
X1.725Y-3.7
X1.825Y-3.6
X1.825Y-3.7
T7
X2.405Y-2.855
X2.505Y-2.855
X2.605Y-2.855
X2.705Y-2.855
X2.805Y-2.855
X2.94Y-1.45
X2.94Y-1.55
X2.94Y-1.65
X2.94Y-1.75
X2.94Y-1.85
T8
X1.6132Y-1.9112
X1.7785Y-1.9112
X2.0108Y-1.7813
X2.0108Y-1.9112
T9
X1.725Y-1.125
X1.925Y-1.125
X1.25Y-1.125
X1.45Y-1.125
X2.7Y-1.125
X2.9Y-1.125
X2.2Y-1.125
X2.4Y-1.125
T10
X1.3848Y-1.8246
X1.4911Y-2.3876
X1.9242Y-2.3876
T11
X1.4852Y-2.7491
X1.4852Y-3.2665
X1.7088Y-2.7491
X1.7088Y-3.2665
T0
M30
