G04 #@! TF.GenerationSoftware,KiCad,Pcbnew,5.1.5-1.fc30*
G04 #@! TF.CreationDate,2020-05-16T23:49:47+02:00*
G04 #@! TF.ProjectId,uwrhorn_v3,75777268-6f72-46e5-9f76-332e6b696361,v3.0*
G04 #@! TF.SameCoordinates,Original*
G04 #@! TF.FileFunction,Paste,Bot*
G04 #@! TF.FilePolarity,Positive*
%FSLAX46Y46*%
G04 Gerber Fmt 4.6, Leading zero omitted, Abs format (unit mm)*
G04 Created by KiCad (PCBNEW 5.1.5-1.fc30) date 2020-05-16 23:49:47*
%MOMM*%
%LPD*%
G04 APERTURE LIST*
G04 APERTURE END LIST*
M02*
